Analysis of Hypertension using Vitamin C Level as a Key Predictor Along with Four Other Potential Risk Factors
…
whq070
Cat-2
yes, no: Tried to lose weight in past year?

ridreth3
Cat-6
Mexican American, Other Hispanic, Non-Hispanic White, Non-Hispanic Black, Non-Hispanic Asian, Other Race - Including Multi-Racial: Race/Hispanic origin w/ NH Asian

Analytic Tibble

We have proven here that we have a tibble.

final_2

# A tibble: 1,142 x 7
   seqn       riagendr ridreth3           bpxsy1 whq030         whq070    lbxvic
   <labelled> <fct>    <fct>               <dbl> <fct>          <fct>      <dbl>
 1 93718      Male     Non-Hispanic Black    128 About the rig~ Not Atte~  2.05 
 2 93728      Male     Non-Hispanic Black    122 Overweight     Not Atte~  0.204
 3 93729      Male     Non-Hispanic Black    130 About the rig~ Not Atte~  0.396
 4 93735      Male     Other Hispanic        154 Overweight     Not Atte~  0.071
 5 93758      Female   Non-Hispanic White    154 Overweight     Not Atte~  0.104
 6 93760      Female   Mexican American      132 About the rig~ Not Atte~  0.615
 7 93761      Male     Non-Hispanic Asian    132 About the rig~ Attempted  0.13 
 8 93763      Male     Non-Hispanic White    120 Overweight     Not Atte~  0.209
 9 93766      Female   Other Hispanic        148 Overweight     Not Atte~  0.67 
10 93770      Male     Other Hispanic        130 Overweight     Attempted  0.078
# ... with 1,132 more rows
…
